@!@!@STARTMSG 2262:0 @!@!@
TLC2 Version 2.18 of Day Month 20?? (rev: e042eaf)
@!@!@ENDMSG 2262 @!@!@
@!@!@STARTMSG 2187:0 @!@!@
Running breadth-first search Model-Checking with fp 95 and seed 3601136165962833441 with 6 workers on 12 cores with 1204MB heap and 2705MB offheap memory [pid: 11440] (Windows 10 10.0 amd64, AdoptOpenJDK 14.0.1 x86_64, OffHeapDiskFPSet, DiskStateQueue).
@!@!@ENDMSG 2187 @!@!@
@!@!@STARTMSG 2220:0 @!@!@
Starting SANY...
@!@!@ENDMSG 2220 @!@!@
Parsing file C:\Users\Madi\OneDrive - Alma Mater Studiorum UniversitÓ di Bologna\Desktop\pcd\cons1\tla-spec\assignment01.toolbox\assignment01\MC.tla
Parsing file C:\Users\Madi\OneDrive - Alma Mater Studiorum UniversitÓ di Bologna\Desktop\pcd\cons1\tla-spec\assignment01.toolbox\assignment01\assignment01.tla
Warning: symbols were renamed.
Parsing file C:\Users\Madi\OneDrive - Alma Mater Studiorum UniversitÓ di Bologna\Desktop\toolbox\plugins\org.lamport.tlatools_1.0.0.202203260553\tla2sany\StandardModules\TLC.tla
Parsing file C:\Users\Madi\OneDrive - Alma Mater Studiorum UniversitÓ di Bologna\Desktop\toolbox\plugins\org.lamport.tlatools_1.0.0.202203260553\tla2sany\StandardModules\Integers.tla
Parsing file C:\Users\Madi\OneDrive - Alma Mater Studiorum UniversitÓ di Bologna\Desktop\toolbox\plugins\org.lamport.tlatools_1.0.0.202203260553\tla2sany\StandardModules\Sequences.tla
Parsing file C:\Users\Madi\OneDrive - Alma Mater Studiorum UniversitÓ di Bologna\Desktop\toolbox\plugins\org.lamport.tlatools_1.0.0.202203260553\tla2sany\StandardModules\Naturals.tla
Parsing file C:\Users\Madi\OneDrive - Alma Mater Studiorum UniversitÓ di Bologna\Desktop\toolbox\plugins\org.lamport.tlatools_1.0.0.202203260553\tla2sany\StandardModules\FiniteSets.tla
Semantic processing of module Naturals
Semantic processing of module Sequences
Semantic processing of module FiniteSets
Semantic processing of module TLC
Semantic processing of module Integers
Semantic processing of module assignment01
Semantic processing of module MC
@!@!@STARTMSG 2219:0 @!@!@
SANY finished.
@!@!@ENDMSG 2219 @!@!@
@!@!@STARTMSG 2185:0 @!@!@
Starting... (2022-04-07 18:03:05)
@!@!@ENDMSG 2185 @!@!@
@!@!@STARTMSG 2189:0 @!@!@
Computing initial states...
@!@!@ENDMSG 2189 @!@!@
@!@!@STARTMSG 2190:0 @!@!@
Finished computing initial states: 1 distinct state generated at 2022-04-07 18:03:05.
@!@!@ENDMSG 2190 @!@!@
"task1"
"task1"
"task1"
"task1"
"task1"
"task1"
"task1"
"task1"
"task1"
"task1"
"task1"
"task1"
"task1"
"task1"
"task2"
"task2"
"task2"
"task2"
"task2"
"task2"
"task2"
"task2"
"task2"
"task2"
"task2"
"task2"
"task2"
"task2"
"task2"
"task2"
"task2"
"end iteration"
"end iteration"
"task2"
"task2"
"end iteration"
"end iteration"
"end iteration"
"end iteration"
"task2"
"end iteration"
"end iteration"
"end iteration"
"end iteration"
"end iteration"
"end iteration"
"task2"
"task2"
"task3"
"end iteration"
"end iteration"
"end iteration"
"task3"
"task3"
"end iteration"
"end iteration"
"task3"
"task3"
"end iteration"
"task3"
"task3"
"task3"
"task3"
"task3"
"task3"
"task3"
"end iteration"
"end iteration"
"task3"
"task3"
"task3"
"task3"
"task3"
"task3"
"task3"
"task3"
"task3"
"task3"
"task3"
"task3"
"task3"
"task3"
"task3"
"task3"
"task3"
"task3"
"task3"
"task3"
"task3"
"task3"
"task3"
"task3"
"task3"
"task3"
"task3"
"task3"
"task3"
"task3"
"task3"
"task3"
"task3"
"task3"
"task3"
"task3"
"task3"
"task3"
"task3"
"task3"
"task3"
"task3"
"task3"
"task3"
"task3"
"task3"
"task1"
"task1"
"task1"
"task3"
"task3"
"task1"
"task1"
"task1"
"task1"
"task1"
"task1"
"task1"
"task1"
"task1"
"task1"
"task1"
"task1"
"task1"
"task1"
"task1"
"task1"
"task1"
"task2"
"task2"
"task2"
"task2"
"task2"
"task2"
"task2"
"task2"
"task2"
"task2"
"task2"
"end iteration"
"task2"
"end iteration"
"end iteration"
"end iteration"
"end iteration"
"end iteration"
"end iteration"
"end iteration"
"task3"
"task3"
"task3"
"task3"
"task3"
"task3"
"task3"
"task3"
@!@!@STARTMSG 2193:0 @!@!@
Model checking completed. No error has been found.
  Estimates of the probability that TLC did not check all reachable states
  because two distinct states had the same fingerprint:
  calculated (optimistic):  val = 1.4E-14
@!@!@ENDMSG 2193 @!@!@
@!@!@STARTMSG 2201:0 @!@!@
The coverage statistics at 2022-04-07 18:03:05
@!@!@ENDMSG 2201 @!@!@
@!@!@STARTMSG 2773:0 @!@!@
<Init line 75, col 1 to line 75, col 4 of module assignment01>: 1:1
@!@!@ENDMSG 2773 @!@!@
@!@!@STARTMSG 2221:0 @!@!@
  line 76, col 12 to line 76, col 35 of module assignment01: 1
@!@!@ENDMSG 2221 @!@!@
@!@!@STARTMSG 2221:0 @!@!@
  line 77, col 12 to line 77, col 69 of module assignment01: 1
@!@!@ENDMSG 2221 @!@!@
@!@!@STARTMSG 2775:0 @!@!@
  line 79, col 20 to line 79, col 49 of module assignment01: 1:1
@!@!@ENDMSG 2775 @!@!@
@!@!@STARTMSG 2775:0 @!@!@
  |line 79, col 30 to line 79, col 41 of module assignment01: 1:2
@!@!@ENDMSG 2775 @!@!@
@!@!@STARTMSG 2775:0 @!@!@
  line 81, col 19 to line 81, col 64 of module assignment01: 1:2
@!@!@ENDMSG 2775 @!@!@
@!@!@STARTMSG 2775:0 @!@!@
  |line 81, col 29 to line 81, col 52 of module assignment01: 1:3
@!@!@ENDMSG 2775 @!@!@
@!@!@STARTMSG 2221:0 @!@!@
  line 82, col 12 to line 83, col 90 of module assignment01: 1
@!@!@ENDMSG 2221 @!@!@
@!@!@STARTMSG 2775:0 @!@!@
  |line 82, col 17 to line 83, col 90 of module assignment01: 1:3
@!@!@ENDMSG 2775 @!@!@
@!@!@STARTMSG 2221:0 @!@!@
  ||line 82, col 27 to line 82, col 33 of module assignment01: 1
@!@!@ENDMSG 2221 @!@!@
@!@!@STARTMSG 2772:0 @!@!@
<DistributeTasks line 85, col 1 to line 85, col 21 of module assignment01>: 18:121
@!@!@ENDMSG 2772 @!@!@
@!@!@STARTMSG 2221:0 @!@!@
  line 85, col 29 to line 85, col 56 of module assignment01: 601
@!@!@ENDMSG 2221 @!@!@
@!@!@STARTMSG 2221:0 @!@!@
  |line 85, col 29 to line 85, col 36 of module assignment01: 480
@!@!@ENDMSG 2221 @!@!@
@!@!@STARTMSG 2221:0 @!@!@
  line 86, col 29 to line 86, col 70 of module assignment01: 121
@!@!@ENDMSG 2221 @!@!@
@!@!@STARTMSG 2221:0 @!@!@
  line 87, col 29 to line 88, col 55 of module assignment01: 121
@!@!@ENDMSG 2221 @!@!@
@!@!@STARTMSG 2772:0 @!@!@
<DistributeT1 line 90, col 1 to line 90, col 18 of module assignment01>: 14:32
@!@!@ENDMSG 2772 @!@!@
@!@!@STARTMSG 2221:0 @!@!@
  line 90, col 26 to line 90, col 50 of module assignment01: 512
@!@!@ENDMSG 2221 @!@!@
@!@!@STARTMSG 2221:0 @!@!@
  |line 90, col 26 to line 90, col 33 of module assignment01: 480
@!@!@ENDMSG 2221 @!@!@
@!@!@STARTMSG 2221:0 @!@!@
  line 91, col 26 to line 91, col 51 of module assignment01: 153
@!@!@ENDMSG 2221 @!@!@
@!@!@STARTMSG 2221:0 @!@!@
  |line 91, col 26 to line 91, col 47 of module assignment01: 121
@!@!@ENDMSG 2221 @!@!@
@!@!@STARTMSG 2221:0 @!@!@
  line 92, col 26 to line 92, col 50 of module assignment01: 32
@!@!@ENDMSG 2221 @!@!@
@!@!@STARTMSG 2221:0 @!@!@
  line 93, col 26 to line 93, col 66 of module assignment01: 32
@!@!@ENDMSG 2221 @!@!@
@!@!@STARTMSG 2221:0 @!@!@
  line 94, col 26 to line 94, col 107 of module assignment01: 32
@!@!@ENDMSG 2221 @!@!@
@!@!@STARTMSG 2221:0 @!@!@
  line 95, col 26 to line 95, col 67 of module assignment01: 32
@!@!@ENDMSG 2221 @!@!@
@!@!@STARTMSG 2221:0 @!@!@
  line 96, col 26 to line 96, col 37 of module assignment01: 32
@!@!@ENDMSG 2221 @!@!@
@!@!@STARTMSG 2772:0 @!@!@
<DistributeT2 line 98, col 1 to line 98, col 18 of module assignment01>: 13:28
@!@!@ENDMSG 2772 @!@!@
@!@!@STARTMSG 2221:0 @!@!@
  line 98, col 26 to line 98, col 50 of module assignment01: 508
@!@!@ENDMSG 2221 @!@!@
@!@!@STARTMSG 2221:0 @!@!@
  |line 98, col 26 to line 98, col 33 of module assignment01: 480
@!@!@ENDMSG 2221 @!@!@
@!@!@STARTMSG 2221:0 @!@!@
  line 99, col 26 to line 99, col 51 of module assignment01: 149
@!@!@ENDMSG 2221 @!@!@
@!@!@STARTMSG 2221:0 @!@!@
  |line 99, col 26 to line 99, col 47 of module assignment01: 121
@!@!@ENDMSG 2221 @!@!@
@!@!@STARTMSG 2221:0 @!@!@
  line 100, col 26 to line 100, col 50 of module assignment01: 28
@!@!@ENDMSG 2221 @!@!@
@!@!@STARTMSG 2221:0 @!@!@
  line 101, col 26 to line 101, col 66 of module assignment01: 28
@!@!@ENDMSG 2221 @!@!@
@!@!@STARTMSG 2221:0 @!@!@
  line 102, col 26 to line 102, col 107 of module assignment01: 28
@!@!@ENDMSG 2221 @!@!@
@!@!@STARTMSG 2221:0 @!@!@
  line 103, col 26 to line 103, col 67 of module assignment01: 28
@!@!@ENDMSG 2221 @!@!@
@!@!@STARTMSG 2221:0 @!@!@
  line 104, col 26 to line 104, col 37 of module assignment01: 28
@!@!@ENDMSG 2221 @!@!@
@!@!@STARTMSG 2772:0 @!@!@
<DistributeT3 line 106, col 1 to line 106, col 18 of module assignment01>: 15:28
@!@!@ENDMSG 2772 @!@!@
@!@!@STARTMSG 2221:0 @!@!@
  line 106, col 26 to line 106, col 50 of module assignment01: 508
@!@!@ENDMSG 2221 @!@!@
@!@!@STARTMSG 2221:0 @!@!@
  |line 106, col 26 to line 106, col 33 of module assignment01: 480
@!@!@ENDMSG 2221 @!@!@
@!@!@STARTMSG 2221:0 @!@!@
  line 107, col 26 to line 107, col 51 of module assignment01: 145
@!@!@ENDMSG 2221 @!@!@
@!@!@STARTMSG 2221:0 @!@!@
  |line 107, col 26 to line 107, col 47 of module assignment01: 117
@!@!@ENDMSG 2221 @!@!@
@!@!@STARTMSG 2221:0 @!@!@
  line 108, col 26 to line 108, col 50 of module assignment01: 28
@!@!@ENDMSG 2221 @!@!@
@!@!@STARTMSG 2221:0 @!@!@
  line 109, col 26 to line 109, col 66 of module assignment01: 28
@!@!@ENDMSG 2221 @!@!@
@!@!@STARTMSG 2221:0 @!@!@
  line 110, col 26 to line 110, col 107 of module assignment01: 28
@!@!@ENDMSG 2221 @!@!@
@!@!@STARTMSG 2221:0 @!@!@
  line 111, col 26 to line 111, col 48 of module assignment01: 28
@!@!@ENDMSG 2221 @!@!@
@!@!@STARTMSG 2221:0 @!@!@
  line 112, col 26 to line 112, col 70 of module assignment01: 28
@!@!@ENDMSG 2221 @!@!@
@!@!@STARTMSG 2221:0 @!@!@
  line 113, col 26 to line 113, col 37 of module assignment01: 28
@!@!@ENDMSG 2221 @!@!@
@!@!@STARTMSG 2772:0 @!@!@
<Execute line 118, col 1 to line 118, col 13 of module assignment01>: 192:412
@!@!@ENDMSG 2772 @!@!@
@!@!@STARTMSG 2221:0 @!@!@
  line 118, col 21 to line 118, col 40 of module assignment01: 1372
@!@!@ENDMSG 2221 @!@!@
@!@!@STARTMSG 2221:0 @!@!@
  |line 118, col 21 to line 118, col 28 of module assignment01: 960
@!@!@ENDMSG 2221 @!@!@
@!@!@STARTMSG 2221:0 @!@!@
  line 119, col 21 to line 119, col 59 of module assignment01: 412
@!@!@ENDMSG 2221 @!@!@
@!@!@STARTMSG 2221:0 @!@!@
  line 120, col 21 to line 121, col 40 of module assignment01: 412
@!@!@ENDMSG 2221 @!@!@
@!@!@STARTMSG 2772:0 @!@!@
<TakeTasks line 123, col 1 to line 123, col 15 of module assignment01>: 114:260
@!@!@ENDMSG 2772 @!@!@
@!@!@STARTMSG 2221:0 @!@!@
  line 123, col 23 to line 123, col 44 of module assignment01: 1220
@!@!@ENDMSG 2221 @!@!@
@!@!@STARTMSG 2221:0 @!@!@
  |line 123, col 23 to line 123, col 30 of module assignment01: 960
@!@!@ENDMSG 2221 @!@!@
@!@!@STARTMSG 2221:0 @!@!@
  line 124, col 23 to line 124, col 47 of module assignment01: 672
@!@!@ENDMSG 2221 @!@!@
@!@!@STARTMSG 2221:0 @!@!@
  |line 124, col 23 to line 124, col 39 of module assignment01: 412
@!@!@ENDMSG 2221 @!@!@
@!@!@STARTMSG 2221:0 @!@!@
  |line 124, col 44 to line 124, col 47 of module assignment01: 412
@!@!@ENDMSG 2221 @!@!@
@!@!@STARTMSG 2221:0 @!@!@
  line 125, col 23 to line 125, col 77 of module assignment01: 260
@!@!@ENDMSG 2221 @!@!@
@!@!@STARTMSG 2221:0 @!@!@
  line 126, col 23 to line 126, col 66 of module assignment01: 260
@!@!@ENDMSG 2221 @!@!@
@!@!@STARTMSG 2221:0 @!@!@
  line 127, col 23 to line 127, col 64 of module assignment01: 260
@!@!@ENDMSG 2221 @!@!@
@!@!@STARTMSG 2221:0 @!@!@
  line 128, col 23 to line 128, col 62 of module assignment01: 260
@!@!@ENDMSG 2221 @!@!@
@!@!@STARTMSG 2772:0 @!@!@
<ExecuteTasks line 130, col 1 to line 130, col 18 of module assignment01>: 113:136
@!@!@ENDMSG 2772 @!@!@
@!@!@STARTMSG 2221:0 @!@!@
  line 130, col 26 to line 130, col 50 of module assignment01: 1096
@!@!@ENDMSG 2221 @!@!@
@!@!@STARTMSG 2221:0 @!@!@
  |line 130, col 26 to line 130, col 33 of module assignment01: 960
@!@!@ENDMSG 2221 @!@!@
@!@!@STARTMSG 2221:0 @!@!@
  line 131, col 26 to line 131, col 43 of module assignment01: 136
@!@!@ENDMSG 2221 @!@!@
@!@!@STARTMSG 2221:0 @!@!@
  line 132, col 26 to line 132, col 83 of module assignment01: 136
@!@!@ENDMSG 2221 @!@!@
@!@!@STARTMSG 2221:0 @!@!@
  line 133, col 26 to line 133, col 62 of module assignment01: 136
@!@!@ENDMSG 2221 @!@!@
@!@!@STARTMSG 2221:0 @!@!@
  line 134, col 26 to line 134, col 71 of module assignment01: 136
@!@!@ENDMSG 2221 @!@!@
@!@!@STARTMSG 2774:0 @!@!@
<TaskExclusionInvariant line 63, col 1 to line 63, col 22 of module assignment01>
@!@!@ENDMSG 2774 @!@!@
@!@!@STARTMSG 2221:0 @!@!@
  line 63, col 27 to line 67, col 1 of module assignment01: 480
@!@!@ENDMSG 2221 @!@!@
@!@!@STARTMSG 2221:0 @!@!@
  |line 63, col 28 to line 63, col 61 of module assignment01: 480
@!@!@ENDMSG 2221 @!@!@
@!@!@STARTMSG 2221:0 @!@!@
  |line 64, col 3 to line 66, col 57 of module assignment01: 480
@!@!@ENDMSG 2221 @!@!@
@!@!@STARTMSG 2221:0 @!@!@
  ||line 64, col 3 to line 65, col 93 of module assignment01: 480
@!@!@ENDMSG 2221 @!@!@
@!@!@STARTMSG 2221:0 @!@!@
  |||line 64, col 3 to line 64, col 26 of module assignment01: 480
@!@!@ENDMSG 2221 @!@!@
@!@!@STARTMSG 2221:0 @!@!@
  |||line 65, col 4 to line 65, col 92 of module assignment01: 296
@!@!@ENDMSG 2221 @!@!@
@!@!@STARTMSG 2221:0 @!@!@
  ||line 66, col 3 to line 66, col 57 of module assignment01: 120
@!@!@ENDMSG 2221 @!@!@
@!@!@STARTMSG 2202:0 @!@!@
End of statistics.
@!@!@ENDMSG 2202 @!@!@
@!@!@STARTMSG 2200:0 @!@!@
Progress(45) at 2022-04-07 18:03:05: 1.018 states generated (50.396 s/min), 480 distinct states found (23.762 ds/min), 0 states left on queue.
@!@!@ENDMSG 2200 @!@!@
@!@!@STARTMSG 2199:0 @!@!@
1018 states generated, 480 distinct states found, 0 states left on queue.
@!@!@ENDMSG 2199 @!@!@
@!@!@STARTMSG 2194:0 @!@!@
The depth of the complete state graph search is 45.
@!@!@ENDMSG 2194 @!@!@
@!@!@STARTMSG 2268:0 @!@!@
The average outdegree of the complete state graph is 1 (minimum is 0, the maximum 3 and the 95th percentile is 2).
@!@!@ENDMSG 2268 @!@!@
@!@!@STARTMSG 2186:0 @!@!@
Finished in 1219ms at (2022-04-07 18:03:05)
@!@!@ENDMSG 2186 @!@!@
