@!@!@STARTMSG 2262:0 @!@!@
TLC2 Version 2.18 of Day Month 20?? (rev: e042eaf)
@!@!@ENDMSG 2262 @!@!@
@!@!@STARTMSG 2187:0 @!@!@
Running breadth-first search Model-Checking with fp 20 and seed -7148789971743012265 with 6 workers on 12 cores with 1204MB heap and 2705MB offheap memory [pid: 14332] (Windows 10 10.0 amd64, AdoptOpenJDK 14.0.1 x86_64, OffHeapDiskFPSet, DiskStateQueue).
@!@!@ENDMSG 2187 @!@!@
@!@!@STARTMSG 2220:0 @!@!@
Starting SANY...
@!@!@ENDMSG 2220 @!@!@
Parsing file C:\Users\Madi\OneDrive - Alma Mater Studiorum UniversitÓ di Bologna\Desktop\pcd\cons1\tla-spec\assignment01.toolbox\assignment01\MC.tla
Parsing file C:\Users\Madi\OneDrive - Alma Mater Studiorum UniversitÓ di Bologna\Desktop\pcd\cons1\tla-spec\assignment01.toolbox\assignment01\assignment01.tla
Warning: symbols were renamed.
Parsing file C:\Users\Madi\OneDrive - Alma Mater Studiorum UniversitÓ di Bologna\Desktop\toolbox\plugins\org.lamport.tlatools_1.0.0.202203260553\tla2sany\StandardModules\TLC.tla
Parsing file C:\Users\Madi\OneDrive - Alma Mater Studiorum UniversitÓ di Bologna\Desktop\toolbox\plugins\org.lamport.tlatools_1.0.0.202203260553\tla2sany\StandardModules\Integers.tla
Parsing file C:\Users\Madi\OneDrive - Alma Mater Studiorum UniversitÓ di Bologna\Desktop\toolbox\plugins\org.lamport.tlatools_1.0.0.202203260553\tla2sany\StandardModules\Sequences.tla
Parsing file C:\Users\Madi\OneDrive - Alma Mater Studiorum UniversitÓ di Bologna\Desktop\toolbox\plugins\org.lamport.tlatools_1.0.0.202203260553\tla2sany\StandardModules\Naturals.tla
Parsing file C:\Users\Madi\OneDrive - Alma Mater Studiorum UniversitÓ di Bologna\Desktop\toolbox\plugins\org.lamport.tlatools_1.0.0.202203260553\tla2sany\StandardModules\FiniteSets.tla
Semantic processing of module Naturals
Semantic processing of module Sequences
Semantic processing of module FiniteSets
Semantic processing of module TLC
Semantic processing of module Integers
Semantic processing of module assignment01
Semantic processing of module MC
@!@!@STARTMSG 2219:0 @!@!@
SANY finished.
@!@!@ENDMSG 2219 @!@!@
@!@!@STARTMSG 2185:0 @!@!@
Starting... (2022-04-07 17:49:44)
@!@!@ENDMSG 2185 @!@!@
@!@!@STARTMSG 2189:0 @!@!@
Computing initial states...
@!@!@ENDMSG 2189 @!@!@
@!@!@STARTMSG 2190:0 @!@!@
Finished computing initial states: 1 distinct state generated at 2022-04-07 17:49:45.
@!@!@ENDMSG 2190 @!@!@
"task1"
"task1"
"task1"
"task1"
"task1"
"task1"
"task1"
"task1"
"task1"
"task1"
"task1"
"task1"
"task1"
"task1"
"task1"
"task2"
"task1"
"task1"
"task1"
"task1"
"task1"
"task1"
"task1"
"task1"
"task1"
"task1"
"task1"
"task2"
"task2"
"task1"
"task1"
"task2"
"task2"
"task1"
"end iteration"
"task2"
"task2"
"task1"
"task1"
"end iteration"
"end iteration"
"task2"
"end iteration"
"task1"
"task2"
"task2"
"task1"
"task2"
"end iteration"
"task2"
"task2"
"task2"
"task2"
"task2"
"task1"
"task2"
"end iteration"
"task2"
"end iteration"
"task1"
"end iteration"
"end iteration"
"end iteration"
"task1"
"task2"
"task2"
"task2"
"task2"
"end iteration"
"end iteration"
"task2"
"task1"
"task2"
"task2"
"task2"
"task2"
"end iteration"
"task1"
"task2"
"task2"
"task2"
"end iteration"
"task2"
"task1"
"task1"
"end iteration"
"end iteration"
"task2"
"task1"
"task2"
"task2"
"end iteration"
"end iteration"
"task2"
"end iteration"
"task2"
"task2"
"end iteration"
"task2"
"end iteration"
"task2"
"task1"
"task3"
"task1"
"task2"
"end iteration"
"task1"
"task2"
"task2"
"task3"
"task1"
"end iteration"
"task2"
"task2"
"task1"
"task2"
"end iteration"
"task3"
"task2"
"end iteration"
"end iteration"
"task2"
"task3"
"end iteration"
"task1"
"end iteration"
"task3"
"task2"
"task2"
"task1"
"task2"
"end iteration"
"task3"
"task3"
"end iteration"
"task2"
"task1"
"task3"
"task2"
"task1"
"task2"
"task2"
"task2"
"end iteration"
"task3"
"task2"
"task1"
"task3"
"task2"
"task2"
"task3"
"task1"
"task3"
"end iteration"
"end iteration"
"task3"
"task2"
"end iteration"
"task2"
"task1"
"end iteration"
"task2"
"task3"
"task2"
"task2"
"task1"
"task3"
"task2"
"task3"
"task3"
"task2"
"task1"
"task2"
"task3"
"task3"
"task3"
"task1"
"task3"
"task3"
"end iteration"
"task2"
"end iteration"
"end iteration"
"task2"
"task2"
"task2"
"task1"
"end iteration"
"task3"
"task3"
"task3"
"task2"
"task1"
"task3"
"task3"
"task2"
"task3"
"task1"
"task3"
"task3"
"task3"
"task1"
"task3"
"task3"
"task3"
"task3"
"task2"
"task3"
"task3"
"task2"
"task1"
"task3"
"task2"
"task2"
"task1"
"task3"
"task3"
"task1"
"task1"
"task3"
"task3"
"task3"
"task1"
"task3"
"task3"
"task3"
"task3"
"task3"
"task3"
"task3"
"task3"
"task3"
"task3"
"task3"
"task3"
"task3"
"task2"
"task2"
"task2"
"task3"
"task1"
"task2"
"task2"
"task2"
"task3"
"task1"
"task1"
"task3"
"task3"
"task1"
"task3"
"task3"
"task3"
"task3"
"task3"
"task3"
"task3"
"task3"
"task3"
"task3"
"task3"
"task3"
"task3"
"task2"
"task3"
"task2"
"task2"
"task1"
"task3"
"task2"
"task1"
"task1"
"task3"
"task3"
"task3"
"task3"
"task3"
"task3"
"task2"
"task2"
"task1"
"task3"
"task3"
"task3"
"task1"
"task1"
"task3"
"task1"
"task1"
"task3"
"task3"
"task1"
"task1"
"task3"
"task3"
"task3"
"task1"
"task3"
"task2"
"task2"
"task3"
"task1"
"task1"
"task1"
"task1"
"task1"
"task1"
"task3"
"task1"
"task3"
"task3"
"task3"
"task3"
"task1"
"task1"
"task2"
"task2"
"task1"
"task3"
"task1"
"task1"
"task3"
"task1"
"task3"
"task3"
"task3"
"task3"
"task1"
"task1"
"task1"
"task3"
"task2"
"task2"
"task1"
"task3"
"task3"
"task1"
"task1"
"task1"
"task3"
"task2"
"task1"
"task2"
"task1"
"task1"
"task3"
"task3"
"task1"
"task1"
"task3"
"task2"
"task1"
"task3"
"task1"
"task2"
"task1"
"task2"
"task1"
"task1"
"task1"
"task3"
"task1"
"task2"
"task3"
"task3"
"task1"
"task1"
"task1"
"task2"
"task1"
"task3"
"task2"
"task1"
"task1"
"task2"
"task2"
"task3"
"task1"
"task2"
"task1"
"task2"
"task3"
"task2"
"task2"
"task3"
"task2"
"task2"
"task2"
"task3"
"task2"
"task2"
"task3"
"task2"
"task2"
"task2"
"task3"
"task2"
"end iteration"
"task2"
"task3"
"end iteration"
"end iteration"
"task2"
"task3"
"task2"
"end iteration"
"task2"
"end iteration"
"task3"
"task2"
"end iteration"
"task3"
"task2"
"task2"
"task2"
"end iteration"
"end iteration"
"task3"
"task2"
"task3"
"task2"
"end iteration"
"task2"
"task2"
"task3"
"task2"
"task2"
"end iteration"
"end iteration"
"task3"
"task3"
"task2"
"task2"
"task3"
"end iteration"
"task2"
"task3"
"task2"
"end iteration"
"end iteration"
"task3"
"task3"
"end iteration"
"end iteration"
"end iteration"
"task3"
"task3"
"task3"
"task3"
"task3"
"end iteration"
"task3"
"task3"
"task3"
"task3"
"task3"
"task3"
"task3"
"task3"
"task3"
"task3"
"task3"
"task3"
"task3"
"task2"
@!@!@STARTMSG 2193:0 @!@!@
Model checking completed. No error has been found.
  Estimates of the probability that TLC did not check all reachable states
  because two distinct states had the same fingerprint:
  calculated (optimistic):  val = 3.3E-14
@!@!@ENDMSG 2193 @!@!@
@!@!@STARTMSG 2201:0 @!@!@
The coverage statistics at 2022-04-07 17:49:45
@!@!@ENDMSG 2201 @!@!@
@!@!@STARTMSG 2773:0 @!@!@
<Init line 67, col 1 to line 67, col 4 of module assignment01>: 1:1
@!@!@ENDMSG 2773 @!@!@
@!@!@STARTMSG 2221:0 @!@!@
  line 68, col 12 to line 68, col 26 of module assignment01: 1
@!@!@ENDMSG 2221 @!@!@
@!@!@STARTMSG 2775:0 @!@!@
  line 70, col 20 to line 70, col 49 of module assignment01: 1:1
@!@!@ENDMSG 2775 @!@!@
@!@!@STARTMSG 2775:0 @!@!@
  |line 70, col 30 to line 70, col 41 of module assignment01: 1:2
@!@!@ENDMSG 2775 @!@!@
@!@!@STARTMSG 2775:0 @!@!@
  line 72, col 19 to line 72, col 64 of module assignment01: 1:2
@!@!@ENDMSG 2775 @!@!@
@!@!@STARTMSG 2775:0 @!@!@
  |line 72, col 29 to line 72, col 52 of module assignment01: 1:3
@!@!@ENDMSG 2775 @!@!@
@!@!@STARTMSG 2221:0 @!@!@
  line 73, col 12 to line 74, col 90 of module assignment01: 1
@!@!@ENDMSG 2221 @!@!@
@!@!@STARTMSG 2775:0 @!@!@
  |line 73, col 17 to line 74, col 90 of module assignment01: 1:3
@!@!@ENDMSG 2775 @!@!@
@!@!@STARTMSG 2221:0 @!@!@
  ||line 73, col 27 to line 73, col 33 of module assignment01: 1
@!@!@ENDMSG 2221 @!@!@
@!@!@STARTMSG 2772:0 @!@!@
<DistributeTasks line 76, col 1 to line 76, col 21 of module assignment01>: 33:175
@!@!@ENDMSG 2772 @!@!@
@!@!@STARTMSG 2221:0 @!@!@
  line 76, col 29 to line 76, col 56 of module assignment01: 871
@!@!@ENDMSG 2221 @!@!@
@!@!@STARTMSG 2221:0 @!@!@
  |line 76, col 29 to line 76, col 36 of module assignment01: 696
@!@!@ENDMSG 2221 @!@!@
@!@!@STARTMSG 2221:0 @!@!@
  line 77, col 29 to line 77, col 70 of module assignment01: 175
@!@!@ENDMSG 2221 @!@!@
@!@!@STARTMSG 2221:0 @!@!@
  line 78, col 29 to line 78, col 65 of module assignment01: 175
@!@!@ENDMSG 2221 @!@!@
@!@!@STARTMSG 2772:0 @!@!@
<DistributeT1 line 80, col 1 to line 80, col 18 of module assignment01>: 32:61
@!@!@ENDMSG 2772 @!@!@
@!@!@STARTMSG 2221:0 @!@!@
  line 80, col 26 to line 80, col 50 of module assignment01: 757
@!@!@ENDMSG 2221 @!@!@
@!@!@STARTMSG 2221:0 @!@!@
  |line 80, col 26 to line 80, col 33 of module assignment01: 696
@!@!@ENDMSG 2221 @!@!@
@!@!@STARTMSG 2221:0 @!@!@
  line 81, col 26 to line 81, col 40 of module assignment01: 236
@!@!@ENDMSG 2221 @!@!@
@!@!@STARTMSG 2221:0 @!@!@
  |line 81, col 26 to line 81, col 33 of module assignment01: 175
@!@!@ENDMSG 2221 @!@!@
@!@!@STARTMSG 2221:0 @!@!@
  |line 81, col 37 to line 81, col 40 of module assignment01: 175
@!@!@ENDMSG 2221 @!@!@
@!@!@STARTMSG 2221:0 @!@!@
  line 82, col 26 to line 82, col 66 of module assignment01: 61
@!@!@ENDMSG 2221 @!@!@
@!@!@STARTMSG 2221:0 @!@!@
  line 83, col 26 to line 83, col 89 of module assignment01: 61
@!@!@ENDMSG 2221 @!@!@
@!@!@STARTMSG 2221:0 @!@!@
  line 84, col 26 to line 84, col 67 of module assignment01: 61
@!@!@ENDMSG 2221 @!@!@
@!@!@STARTMSG 2221:0 @!@!@
  line 85, col 26 to line 85, col 37 of module assignment01: 61
@!@!@ENDMSG 2221 @!@!@
@!@!@STARTMSG 2772:0 @!@!@
<DistributeT2 line 87, col 1 to line 87, col 18 of module assignment01>: 18:57
@!@!@ENDMSG 2772 @!@!@
@!@!@STARTMSG 2221:0 @!@!@
  line 87, col 26 to line 87, col 50 of module assignment01: 753
@!@!@ENDMSG 2221 @!@!@
@!@!@STARTMSG 2221:0 @!@!@
  |line 87, col 26 to line 87, col 33 of module assignment01: 696
@!@!@ENDMSG 2221 @!@!@
@!@!@STARTMSG 2221:0 @!@!@
  line 88, col 26 to line 88, col 40 of module assignment01: 232
@!@!@ENDMSG 2221 @!@!@
@!@!@STARTMSG 2221:0 @!@!@
  |line 88, col 26 to line 88, col 33 of module assignment01: 175
@!@!@ENDMSG 2221 @!@!@
@!@!@STARTMSG 2221:0 @!@!@
  |line 88, col 37 to line 88, col 40 of module assignment01: 175
@!@!@ENDMSG 2221 @!@!@
@!@!@STARTMSG 2221:0 @!@!@
  line 89, col 26 to line 89, col 66 of module assignment01: 57
@!@!@ENDMSG 2221 @!@!@
@!@!@STARTMSG 2221:0 @!@!@
  line 90, col 26 to line 90, col 89 of module assignment01: 57
@!@!@ENDMSG 2221 @!@!@
@!@!@STARTMSG 2221:0 @!@!@
  line 91, col 26 to line 91, col 67 of module assignment01: 57
@!@!@ENDMSG 2221 @!@!@
@!@!@STARTMSG 2221:0 @!@!@
  line 92, col 26 to line 92, col 37 of module assignment01: 57
@!@!@ENDMSG 2221 @!@!@
@!@!@STARTMSG 2772:0 @!@!@
<DistributeT3 line 94, col 1 to line 94, col 18 of module assignment01>: 20:57
@!@!@ENDMSG 2772 @!@!@
@!@!@STARTMSG 2221:0 @!@!@
  line 94, col 26 to line 94, col 50 of module assignment01: 753
@!@!@ENDMSG 2221 @!@!@
@!@!@STARTMSG 2221:0 @!@!@
  |line 94, col 26 to line 94, col 33 of module assignment01: 696
@!@!@ENDMSG 2221 @!@!@
@!@!@STARTMSG 2221:0 @!@!@
  line 95, col 26 to line 95, col 40 of module assignment01: 228
@!@!@ENDMSG 2221 @!@!@
@!@!@STARTMSG 2221:0 @!@!@
  |line 95, col 26 to line 95, col 33 of module assignment01: 171
@!@!@ENDMSG 2221 @!@!@
@!@!@STARTMSG 2221:0 @!@!@
  |line 95, col 37 to line 95, col 40 of module assignment01: 171
@!@!@ENDMSG 2221 @!@!@
@!@!@STARTMSG 2221:0 @!@!@
  line 96, col 26 to line 96, col 66 of module assignment01: 57
@!@!@ENDMSG 2221 @!@!@
@!@!@STARTMSG 2221:0 @!@!@
  line 97, col 26 to line 97, col 89 of module assignment01: 57
@!@!@ENDMSG 2221 @!@!@
@!@!@STARTMSG 2221:0 @!@!@
  line 98, col 26 to line 98, col 48 of module assignment01: 57
@!@!@ENDMSG 2221 @!@!@
@!@!@STARTMSG 2221:0 @!@!@
  line 99, col 26 to line 99, col 70 of module assignment01: 57
@!@!@ENDMSG 2221 @!@!@
@!@!@STARTMSG 2221:0 @!@!@
  line 100, col 26 to line 100, col 37 of module assignment01: 57
@!@!@ENDMSG 2221 @!@!@
@!@!@STARTMSG 2772:0 @!@!@
<Execute line 105, col 1 to line 105, col 13 of module assignment01>: 268:492
@!@!@ENDMSG 2772 @!@!@
@!@!@STARTMSG 2221:0 @!@!@
  line 105, col 21 to line 105, col 40 of module assignment01: 1884
@!@!@ENDMSG 2221 @!@!@
@!@!@STARTMSG 2221:0 @!@!@
  |line 105, col 21 to line 105, col 28 of module assignment01: 1392
@!@!@ENDMSG 2221 @!@!@
@!@!@STARTMSG 2221:0 @!@!@
  line 106, col 21 to line 106, col 59 of module assignment01: 492
@!@!@ENDMSG 2221 @!@!@
@!@!@STARTMSG 2221:0 @!@!@
  line 107, col 21 to line 107, col 57 of module assignment01: 492
@!@!@ENDMSG 2221 @!@!@
@!@!@STARTMSG 2772:0 @!@!@
<TakeTasks line 109, col 1 to line 109, col 15 of module assignment01>: 127:324
@!@!@ENDMSG 2772 @!@!@
@!@!@STARTMSG 2221:0 @!@!@
  line 109, col 23 to line 109, col 44 of module assignment01: 1716
@!@!@ENDMSG 2221 @!@!@
@!@!@STARTMSG 2221:0 @!@!@
  |line 109, col 23 to line 109, col 30 of module assignment01: 1392
@!@!@ENDMSG 2221 @!@!@
@!@!@STARTMSG 2221:0 @!@!@
  line 110, col 23 to line 110, col 38 of module assignment01: 816
@!@!@ENDMSG 2221 @!@!@
@!@!@STARTMSG 2221:0 @!@!@
  |line 110, col 23 to line 110, col 30 of module assignment01: 492
@!@!@ENDMSG 2221 @!@!@
@!@!@STARTMSG 2221:0 @!@!@
  |line 110, col 35 to line 110, col 38 of module assignment01: 492
@!@!@ENDMSG 2221 @!@!@
@!@!@STARTMSG 2221:0 @!@!@
  line 111, col 23 to line 111, col 68 of module assignment01: 324
@!@!@ENDMSG 2221 @!@!@
@!@!@STARTMSG 2221:0 @!@!@
  line 112, col 23 to line 112, col 48 of module assignment01: 324
@!@!@ENDMSG 2221 @!@!@
@!@!@STARTMSG 2221:0 @!@!@
  line 113, col 23 to line 113, col 64 of module assignment01: 324
@!@!@ENDMSG 2221 @!@!@
@!@!@STARTMSG 2221:0 @!@!@
  line 114, col 23 to line 114, col 36 of module assignment01: 324
@!@!@ENDMSG 2221 @!@!@
@!@!@STARTMSG 2772:0 @!@!@
<ExecuteTasks line 116, col 1 to line 116, col 18 of module assignment01>: 197:408
@!@!@ENDMSG 2772 @!@!@
@!@!@STARTMSG 2221:0 @!@!@
  line 116, col 26 to line 116, col 50 of module assignment01: 1800
@!@!@ENDMSG 2221 @!@!@
@!@!@STARTMSG 2221:0 @!@!@
  |line 116, col 26 to line 116, col 33 of module assignment01: 1392
@!@!@ENDMSG 2221 @!@!@
@!@!@STARTMSG 2221:0 @!@!@
  line 117, col 26 to line 117, col 43 of module assignment01: 408
@!@!@ENDMSG 2221 @!@!@
@!@!@STARTMSG 2221:0 @!@!@
  line 118, col 26 to line 118, col 62 of module assignment01: 408
@!@!@ENDMSG 2221 @!@!@
@!@!@STARTMSG 2221:0 @!@!@
  line 119, col 26 to line 119, col 62 of module assignment01: 408
@!@!@ENDMSG 2221 @!@!@
@!@!@STARTMSG 2774:0 @!@!@
<TaskTemporalDependencies line 55, col 1 to line 55, col 24 of module assignment01>
@!@!@ENDMSG 2774 @!@!@
@!@!@STARTMSG 2221:0 @!@!@
  line 55, col 29 to line 59, col 1 of module assignment01: 696
@!@!@ENDMSG 2221 @!@!@
@!@!@STARTMSG 2221:0 @!@!@
  |line 55, col 30 to line 55, col 54 of module assignment01: 696
@!@!@ENDMSG 2221 @!@!@
@!@!@STARTMSG 2221:0 @!@!@
  |line 56, col 3 to line 58, col 39 of module assignment01: 696
@!@!@ENDMSG 2221 @!@!@
@!@!@STARTMSG 2221:0 @!@!@
  ||line 56, col 3 to line 57, col 75 of module assignment01: 696
@!@!@ENDMSG 2221 @!@!@
@!@!@STARTMSG 2221:0 @!@!@
  |||line 56, col 3 to line 56, col 17 of module assignment01: 696
@!@!@ENDMSG 2221 @!@!@
@!@!@STARTMSG 2221:0 @!@!@
  |||line 57, col 4 to line 57, col 74 of module assignment01: 460
@!@!@ENDMSG 2221 @!@!@
@!@!@STARTMSG 2221:0 @!@!@
  ||line 58, col 3 to line 58, col 39 of module assignment01: 232
@!@!@ENDMSG 2221 @!@!@
@!@!@STARTMSG 2202:0 @!@!@
End of statistics.
@!@!@ENDMSG 2202 @!@!@
@!@!@STARTMSG 2200:0 @!@!@
Progress(45) at 2022-04-07 17:49:45: 1.575 states generated (42.663 s/min), 696 distinct states found (18.853 ds/min), 0 states left on queue.
@!@!@ENDMSG 2200 @!@!@
@!@!@STARTMSG 2199:0 @!@!@
1575 states generated, 696 distinct states found, 0 states left on queue.
@!@!@ENDMSG 2199 @!@!@
@!@!@STARTMSG 2194:0 @!@!@
The depth of the complete state graph search is 45.
@!@!@ENDMSG 2194 @!@!@
@!@!@STARTMSG 2268:0 @!@!@
The average outdegree of the complete state graph is 1 (minimum is 0, the maximum 3 and the 95th percentile is 2).
@!@!@ENDMSG 2268 @!@!@
@!@!@STARTMSG 2186:0 @!@!@
Finished in 2230ms at (2022-04-07 17:49:45)
@!@!@ENDMSG 2186 @!@!@
