@!@!@STARTMSG 2262:0 @!@!@
TLC2 Version 2.18 of Day Month 20?? (rev: e042eaf)
@!@!@ENDMSG 2262 @!@!@
@!@!@STARTMSG 2187:0 @!@!@
Running breadth-first search Model-Checking with fp 48 and seed -8233701606650201456 with 6 workers on 12 cores with 1204MB heap and 2705MB offheap memory [pid: 7620] (Windows 10 10.0 amd64, AdoptOpenJDK 14.0.1 x86_64, OffHeapDiskFPSet, DiskStateQueue).
@!@!@ENDMSG 2187 @!@!@
@!@!@STARTMSG 2220:0 @!@!@
Starting SANY...
@!@!@ENDMSG 2220 @!@!@
Parsing file C:\Users\Madi\OneDrive - Alma Mater Studiorum UniversitÓ di Bologna\Desktop\pcd\cons1\tla-spec\assignment01.toolbox\assignment01\MC.tla
Parsing file C:\Users\Madi\OneDrive - Alma Mater Studiorum UniversitÓ di Bologna\Desktop\pcd\cons1\tla-spec\assignment01.toolbox\assignment01\assignment01.tla
Warning: symbols were renamed.
Parsing file C:\Users\Madi\OneDrive - Alma Mater Studiorum UniversitÓ di Bologna\Desktop\toolbox\plugins\org.lamport.tlatools_1.0.0.202203260553\tla2sany\StandardModules\TLC.tla
Parsing file C:\Users\Madi\OneDrive - Alma Mater Studiorum UniversitÓ di Bologna\Desktop\toolbox\plugins\org.lamport.tlatools_1.0.0.202203260553\tla2sany\StandardModules\Integers.tla
Parsing file C:\Users\Madi\OneDrive - Alma Mater Studiorum UniversitÓ di Bologna\Desktop\toolbox\plugins\org.lamport.tlatools_1.0.0.202203260553\tla2sany\StandardModules\Sequences.tla
Parsing file C:\Users\Madi\OneDrive - Alma Mater Studiorum UniversitÓ di Bologna\Desktop\toolbox\plugins\org.lamport.tlatools_1.0.0.202203260553\tla2sany\StandardModules\Naturals.tla
Parsing file C:\Users\Madi\OneDrive - Alma Mater Studiorum UniversitÓ di Bologna\Desktop\toolbox\plugins\org.lamport.tlatools_1.0.0.202203260553\tla2sany\StandardModules\FiniteSets.tla
Semantic processing of module Naturals
Semantic processing of module Sequences
Semantic processing of module FiniteSets
Semantic processing of module TLC
Semantic processing of module Integers
Semantic processing of module assignment01
Semantic processing of module MC
@!@!@STARTMSG 2219:0 @!@!@
SANY finished.
@!@!@ENDMSG 2219 @!@!@
@!@!@STARTMSG 2185:0 @!@!@
Starting... (2022-04-07 17:27:37)
@!@!@ENDMSG 2185 @!@!@
@!@!@STARTMSG 2189:0 @!@!@
Computing initial states...
@!@!@ENDMSG 2189 @!@!@
@!@!@STARTMSG 2190:0 @!@!@
Finished computing initial states: 1 distinct state generated at 2022-04-07 17:27:38.
@!@!@ENDMSG 2190 @!@!@
@!@!@STARTMSG 2111:1 @!@!@
Evaluating invariant TaskTemporalDependencies failed.
@!@!@STARTMSG 2184:0 @!@!@
Attempted to apply Head to the empty sequence.
@!@!@ENDMSG 2184 @!@!@
@!@!@ENDMSG 2111 @!@!@
@!@!@STARTMSG 2121:1 @!@!@
The behavior up to this point is:
@!@!@ENDMSG 2121 @!@!@
@!@!@STARTMSG 2217:4 @!@!@
1: <Initial predicate>
/\ task = [Worker1 |-> "none", Worker2 |-> "none"]
/\ taskPool = <<>>
/\ pc = [Master |-> "DistributeTasks", Worker1 |-> "Execute", Worker2 |-> "Execute"]
/\ task_ = [Master |-> ""]

@!@!@ENDMSG 2217 @!@!@
@!@!@STARTMSG 2217:4 @!@!@
2: <DistributeTasks line 79, col 26 to line 81, col 65 of module assignment01>
/\ task = [Worker1 |-> "none", Worker2 |-> "none"]
/\ taskPool = <<>>
/\ pc = [Master |-> "DistributeT1", Worker1 |-> "Execute", Worker2 |-> "Execute"]
/\ task_ = [Master |-> ""]

@!@!@ENDMSG 2217 @!@!@
@!@!@STARTMSG 2217:4 @!@!@
3: <DistributeT1 line 83, col 23 to line 88, col 37 of module assignment01>
/\ task = [Worker1 |-> "none", Worker2 |-> "none"]
/\ taskPool = <<"task1", "task1">>
/\ pc = [Master |-> "DistributeT2", Worker1 |-> "Execute", Worker2 |-> "Execute"]
/\ task_ = [Master |-> "task1"]

@!@!@ENDMSG 2217 @!@!@
@!@!@STARTMSG 2217:4 @!@!@
4: <Execute line 107, col 18 to line 109, col 57 of module assignment01>
/\ task = [Worker1 |-> "none", Worker2 |-> "none"]
/\ taskPool = <<"task1", "task1">>
/\ pc = [Master |-> "DistributeT2", Worker1 |-> "TakeTasks", Worker2 |-> "Execute"]
/\ task_ = [Master |-> "task1"]

@!@!@ENDMSG 2217 @!@!@
@!@!@STARTMSG 2217:4 @!@!@
5: <TakeTasks line 111, col 20 to line 116, col 36 of module assignment01>
/\ task = [Worker1 |-> "task1", Worker2 |-> "none"]
/\ taskPool = <<"task1">>
/\ pc = [Master |-> "DistributeT2", Worker1 |-> "ExecuteTasks", Worker2 |-> "Execute"]
/\ task_ = [Master |-> "task1"]

@!@!@ENDMSG 2217 @!@!@
@!@!@STARTMSG 2201:0 @!@!@
The coverage statistics at 2022-04-07 17:27:38
@!@!@ENDMSG 2201 @!@!@
@!@!@STARTMSG 2773:0 @!@!@
<Init line 70, col 1 to line 70, col 4 of module assignment01>: 2:2
@!@!@ENDMSG 2773 @!@!@
@!@!@STARTMSG 2221:0 @!@!@
  line 71, col 12 to line 71, col 26 of module assignment01: 2
@!@!@ENDMSG 2221 @!@!@
@!@!@STARTMSG 2775:0 @!@!@
  line 73, col 20 to line 73, col 49 of module assignment01: 2:2
@!@!@ENDMSG 2775 @!@!@
@!@!@STARTMSG 2775:0 @!@!@
  |line 73, col 30 to line 73, col 41 of module assignment01: 2:4
@!@!@ENDMSG 2775 @!@!@
@!@!@STARTMSG 2775:0 @!@!@
  line 75, col 19 to line 75, col 64 of module assignment01: 2:4
@!@!@ENDMSG 2775 @!@!@
@!@!@STARTMSG 2775:0 @!@!@
  |line 75, col 29 to line 75, col 52 of module assignment01: 2:6
@!@!@ENDMSG 2775 @!@!@
@!@!@STARTMSG 2221:0 @!@!@
  line 76, col 12 to line 77, col 90 of module assignment01: 2
@!@!@ENDMSG 2221 @!@!@
@!@!@STARTMSG 2775:0 @!@!@
  |line 76, col 17 to line 77, col 90 of module assignment01: 2:6
@!@!@ENDMSG 2775 @!@!@
@!@!@STARTMSG 2221:0 @!@!@
  ||line 76, col 27 to line 76, col 33 of module assignment01: 2
@!@!@ENDMSG 2221 @!@!@
@!@!@STARTMSG 2772:0 @!@!@
<DistributeTasks line 79, col 1 to line 79, col 21 of module assignment01>: 4:5
@!@!@ENDMSG 2772 @!@!@
@!@!@STARTMSG 2221:0 @!@!@
  line 79, col 29 to line 79, col 56 of module assignment01: 22
@!@!@ENDMSG 2221 @!@!@
@!@!@STARTMSG 2221:0 @!@!@
  |line 79, col 29 to line 79, col 36 of module assignment01: 17
@!@!@ENDMSG 2221 @!@!@
@!@!@STARTMSG 2221:0 @!@!@
  line 80, col 29 to line 80, col 70 of module assignment01: 5
@!@!@ENDMSG 2221 @!@!@
@!@!@STARTMSG 2221:0 @!@!@
  line 81, col 29 to line 81, col 65 of module assignment01: 5
@!@!@ENDMSG 2221 @!@!@
@!@!@STARTMSG 2772:0 @!@!@
<DistributeT1 line 83, col 1 to line 83, col 18 of module assignment01>: 2:5
@!@!@ENDMSG 2772 @!@!@
@!@!@STARTMSG 2221:0 @!@!@
  line 83, col 26 to line 83, col 50 of module assignment01: 21
@!@!@ENDMSG 2221 @!@!@
@!@!@STARTMSG 2221:0 @!@!@
  |line 83, col 26 to line 83, col 33 of module assignment01: 16
@!@!@ENDMSG 2221 @!@!@
@!@!@STARTMSG 2221:0 @!@!@
  line 84, col 26 to line 84, col 40 of module assignment01: 10
@!@!@ENDMSG 2221 @!@!@
@!@!@STARTMSG 2221:0 @!@!@
  |line 84, col 26 to line 84, col 33 of module assignment01: 5
@!@!@ENDMSG 2221 @!@!@
@!@!@STARTMSG 2221:0 @!@!@
  |line 84, col 37 to line 84, col 40 of module assignment01: 5
@!@!@ENDMSG 2221 @!@!@
@!@!@STARTMSG 2221:0 @!@!@
  line 85, col 26 to line 85, col 66 of module assignment01: 5
@!@!@ENDMSG 2221 @!@!@
@!@!@STARTMSG 2221:0 @!@!@
  line 86, col 26 to line 86, col 89 of module assignment01: 5
@!@!@ENDMSG 2221 @!@!@
@!@!@STARTMSG 2221:0 @!@!@
  line 87, col 26 to line 87, col 67 of module assignment01: 5
@!@!@ENDMSG 2221 @!@!@
@!@!@STARTMSG 2221:0 @!@!@
  line 88, col 26 to line 88, col 37 of module assignment01: 5
@!@!@ENDMSG 2221 @!@!@
@!@!@STARTMSG 2772:0 @!@!@
<DistributeT2 line 90, col 1 to line 90, col 18 of module assignment01>: 0:0
@!@!@ENDMSG 2772 @!@!@
@!@!@STARTMSG 2221:0 @!@!@
  line 90, col 26 to line 90, col 50 of module assignment01: 15
@!@!@ENDMSG 2221 @!@!@
@!@!@STARTMSG 2221:0 @!@!@
  line 91, col 26 to line 91, col 40 of module assignment01: 7
@!@!@ENDMSG 2221 @!@!@
@!@!@STARTMSG 2221:0 @!@!@
  line 92, col 26 to line 92, col 66 of module assignment01: 0
@!@!@ENDMSG 2221 @!@!@
@!@!@STARTMSG 2221:0 @!@!@
  line 93, col 26 to line 93, col 89 of module assignment01: 0
@!@!@ENDMSG 2221 @!@!@
@!@!@STARTMSG 2221:0 @!@!@
  line 94, col 26 to line 94, col 67 of module assignment01: 0
@!@!@ENDMSG 2221 @!@!@
@!@!@STARTMSG 2221:0 @!@!@
  line 95, col 26 to line 95, col 37 of module assignment01: 0
@!@!@ENDMSG 2221 @!@!@
@!@!@STARTMSG 2772:0 @!@!@
<DistributeT3 line 97, col 1 to line 97, col 18 of module assignment01>: 0:0
@!@!@ENDMSG 2772 @!@!@
@!@!@STARTMSG 2221:0 @!@!@
  line 97, col 26 to line 97, col 50 of module assignment01: 15
@!@!@ENDMSG 2221 @!@!@
@!@!@STARTMSG 2221:0 @!@!@
  line 99, col 26 to line 99, col 66 of module assignment01: 0
@!@!@ENDMSG 2221 @!@!@
@!@!@STARTMSG 2221:0 @!@!@
  line 100, col 26 to line 100, col 89 of module assignment01: 0
@!@!@ENDMSG 2221 @!@!@
@!@!@STARTMSG 2221:0 @!@!@
  line 101, col 26 to line 101, col 70 of module assignment01: 0
@!@!@ENDMSG 2221 @!@!@
@!@!@STARTMSG 2221:0 @!@!@
  line 102, col 26 to line 102, col 37 of module assignment01: 0
@!@!@ENDMSG 2221 @!@!@
@!@!@STARTMSG 2772:0 @!@!@
<Execute line 107, col 1 to line 107, col 13 of module assignment01>: 5:13
@!@!@ENDMSG 2772 @!@!@
@!@!@STARTMSG 2221:0 @!@!@
  line 107, col 21 to line 107, col 40 of module assignment01: 39
@!@!@ENDMSG 2221 @!@!@
@!@!@STARTMSG 2221:0 @!@!@
  |line 107, col 21 to line 107, col 28 of module assignment01: 26
@!@!@ENDMSG 2221 @!@!@
@!@!@STARTMSG 2221:0 @!@!@
  line 108, col 21 to line 108, col 59 of module assignment01: 13
@!@!@ENDMSG 2221 @!@!@
@!@!@STARTMSG 2221:0 @!@!@
  line 109, col 21 to line 109, col 57 of module assignment01: 13
@!@!@ENDMSG 2221 @!@!@
@!@!@STARTMSG 2772:0 @!@!@
<TakeTasks line 111, col 1 to line 111, col 15 of module assignment01>: 3:5
@!@!@ENDMSG 2772 @!@!@
@!@!@STARTMSG 2221:0 @!@!@
  line 111, col 23 to line 111, col 44 of module assignment01: 27
@!@!@ENDMSG 2221 @!@!@
@!@!@STARTMSG 2221:0 @!@!@
  |line 111, col 23 to line 111, col 30 of module assignment01: 25
@!@!@ENDMSG 2221 @!@!@
@!@!@STARTMSG 2221:0 @!@!@
  line 112, col 23 to line 112, col 38 of module assignment01: 15
@!@!@ENDMSG 2221 @!@!@
@!@!@STARTMSG 2221:0 @!@!@
  |line 112, col 23 to line 112, col 30 of module assignment01: 13
@!@!@ENDMSG 2221 @!@!@
@!@!@STARTMSG 2221:0 @!@!@
  |line 112, col 35 to line 112, col 38 of module assignment01: 13
@!@!@ENDMSG 2221 @!@!@
@!@!@STARTMSG 2221:0 @!@!@
  line 113, col 23 to line 113, col 68 of module assignment01: 2
@!@!@ENDMSG 2221 @!@!@
@!@!@STARTMSG 2221:0 @!@!@
  |line 113, col 31 to line 113, col 68 of module assignment01: 5
@!@!@ENDMSG 2221 @!@!@
@!@!@STARTMSG 2221:0 @!@!@
  line 114, col 23 to line 114, col 48 of module assignment01: 2
@!@!@ENDMSG 2221 @!@!@
@!@!@STARTMSG 2221:0 @!@!@
  |line 114, col 35 to line 114, col 48 of module assignment01: 5
@!@!@ENDMSG 2221 @!@!@
@!@!@STARTMSG 2221:0 @!@!@
  line 115, col 23 to line 115, col 64 of module assignment01: 2
@!@!@ENDMSG 2221 @!@!@
@!@!@STARTMSG 2221:0 @!@!@
  |line 115, col 29 to line 115, col 64 of module assignment01: 5
@!@!@ENDMSG 2221 @!@!@
@!@!@STARTMSG 2221:0 @!@!@
  line 116, col 23 to line 116, col 36 of module assignment01: 2
@!@!@ENDMSG 2221 @!@!@
@!@!@STARTMSG 2221:0 @!@!@
  |line 116, col 32 to line 116, col 36 of module assignment01: 5
@!@!@ENDMSG 2221 @!@!@
@!@!@STARTMSG 2772:0 @!@!@
<ExecuteTasks line 118, col 1 to line 118, col 18 of module assignment01>: 0:0
@!@!@ENDMSG 2772 @!@!@
@!@!@STARTMSG 2221:0 @!@!@
  line 118, col 26 to line 118, col 50 of module assignment01: 21
@!@!@ENDMSG 2221 @!@!@
@!@!@STARTMSG 2221:0 @!@!@
  line 120, col 26 to line 120, col 62 of module assignment01: 0
@!@!@ENDMSG 2221 @!@!@
@!@!@STARTMSG 2221:0 @!@!@
  line 121, col 26 to line 121, col 62 of module assignment01: 0
@!@!@ENDMSG 2221 @!@!@
@!@!@STARTMSG 2774:0 @!@!@
<TaskTemporalDependencies line 56, col 1 to line 56, col 24 of module assignment01>
@!@!@ENDMSG 2774 @!@!@
@!@!@STARTMSG 2221:0 @!@!@
  line 57, col 3 to line 61, col 3 of module assignment01: 15
@!@!@ENDMSG 2221 @!@!@
@!@!@STARTMSG 2221:0 @!@!@
  |line 57, col 3 to line 57, col 27 of module assignment01: 15
@!@!@ENDMSG 2221 @!@!@
@!@!@STARTMSG 2221:0 @!@!@
  |line 58, col 7 to line 60, col 80 of module assignment01: 15
@!@!@ENDMSG 2221 @!@!@
@!@!@STARTMSG 2221:0 @!@!@
  ||line 58, col 7 to line 59, col 43 of module assignment01: 15
@!@!@ENDMSG 2221 @!@!@
@!@!@STARTMSG 2221:0 @!@!@
  |||line 58, col 7 to line 58, col 21 of module assignment01: 15
@!@!@ENDMSG 2221 @!@!@
@!@!@STARTMSG 2221:0 @!@!@
  |||line 59, col 7 to line 59, col 43 of module assignment01: 7
@!@!@ENDMSG 2221 @!@!@
@!@!@STARTMSG 2202:0 @!@!@
End of statistics.
@!@!@ENDMSG 2202 @!@!@
@!@!@STARTMSG 2200:0 @!@!@
Progress(6) at 2022-04-07 17:27:38: 23 states generated (731 s/min), 15 distinct states found (477 ds/min), 0 states left on queue.
@!@!@ENDMSG 2200 @!@!@
@!@!@STARTMSG 2199:0 @!@!@
23 states generated, 15 distinct states found, 0 states left on queue.
@!@!@ENDMSG 2199 @!@!@
@!@!@STARTMSG 2194:0 @!@!@
The depth of the complete state graph search is 6.
@!@!@ENDMSG 2194 @!@!@
@!@!@STARTMSG 2268:0 @!@!@
The average outdegree of the complete state graph is 1 (minimum is 0, the maximum 3 and the 95th percentile is 3).
@!@!@ENDMSG 2268 @!@!@
@!@!@STARTMSG 2186:0 @!@!@
Finished in 1900ms at (2022-04-07 17:27:38)
@!@!@ENDMSG 2186 @!@!@
